{
  "version": 2,
  "name": "abook-club.ru",
  "home": {
    "get": "http://http://mds-club.ru/"
  },
  "news": {
    "get": "http://http://mds-club.ru//new_abooks/#expand_all",
    "list": ".entry",
    "title": ".entry_header_full a",
    "details": ".entry_header_full a:regex(.*href=\"([^\"]*)\".*)",
    "date": ".entry_time:regex(.*,([^—]*).*)",
    "next": ".audiobooks_addon span a[style*=bold]+a:regex(.*href=\"([^\"]*)\".*)"
  },
  "crawl": {
    "get": "crawls",
    "list": ".hl-tr",
    "title": "a.topictitle",
    "details": "a.topictitle:regex(.*href=\"([^\"]*)\".*)",
    "date": "td:nth-child(5):regex(.*<p>(.*)</p>.*<p>.*</p>.*)",
    "next": "div.nav a.pg:last:regex(.*href=\"([^\"]*)\".*След.*)"
  },
  "crawls": {
    "Asr": "http://abook-club.ru/asr_abooks/#expand_all",
    "New": "http://abook-club.ru/new_abooks/#expand_all"
  },
  "top": {
    "crawl_get": "tops"
  },
  "tops": {
    "News": "date",
    "Top": "downloads"
  },
  "search": {
    "post": "http://rutracker.org/forum/tracker.php",
    "post_search": "nm",
    "js": "if(document.querySelectorAll('a.logged-in-as-uname').length==0) {\n  alert('Not Logged In');\n}",
    "list": ".forumline.tablesorter tbody tr",
    "title": "a.tLink:regex(<a[^>]*>(.*)</a>)",
    "details": "a.tLink:regex(.*href=\"([^\"]*)\".*)",
    "date": "td:nth-child(10):regex(.*<p>(.*)</p>.*)",
    "size": "a.dl-stub:regex(<a[^>]*>(.*)</a>)",
    "seed": "b.seedmed:regex(<b[^>]*>(.*)</b>)",
    "leech": "td.leechmed b:regex(<b[^>]*>(.*)</b>)",
    "next": "div.nav a.pg:last:regex(.*href=\"([^\"]*)\".*След.*)"
  }
}
